Filter sites and operation
…
Code 

Show All Code

Hide All Code

Filter sites and operation

Alain Danet

21 January, 2022

op_protocol %>%
  filter(is.na(date), !is.na(month))
#> # A tibble: 7,339 x 12
#>    siteid op_id   date    year month quarter protocol       protocol_detail
#>    <chr>  <chr>   <date> <dbl> <dbl>   <dbl> <chr>          <chr>          
#>  1 S10203 ltm2046 NA      1993     7       3 Electrofishing Electrofishing 
#>  2 S10203 ltm2047 NA      1994     7       3 Electrofishing Electrofishing 
#>  3 S10203 ltm2048 NA      1995     7       3 Electrofishing Electrofishing 
#>  4 S10203 ltm2049 NA      1996     7       3 Electrofishing Electrofishing 
#>  5 S10203 ltm2050 NA      1997     7       3 Electrofishing Electrofishing 
#>  6 S10203 ltm2051 NA      1998     7       3 Electrofishing Electrofishing 
#>  7 S10203 ltm2052 NA      1999     7       3 Electrofishing Electrofishing 
#>  8 S10203 ltm2053 NA      2000     6       2 Electrofishing Electrofishing 
#>  9 S10203 ltm2054 NA      2001     7       3 Electrofishing Electrofishing 
#> 10 S10203 ltm2055 NA      2002     7       3 Electrofishing Electrofishing 
#> # ... with 7,329 more rows, and 4 more variables: sampledlength_m <dbl>,
#> #   unitabundance <chr>, watertemp_c <dbl>, unitbiomass <chr>
op_protocol %>%
  filter(is.na(month), is.na(quarter))
#> # A tibble: 586 x 12
#>    siteid op_id  date    year month quarter protocol          protocol_detail   
#>    <chr>  <chr>  <date> <dbl> <dbl>   <dbl> <chr>             <chr>             
#>  1 S10088 mwr154 NA      2002    NA      NA Electrofishing    Electrofishing_an~
#>  2 S10088 mwr155 NA      2006    NA      NA Electrofishing    Electrofishing_an~
#>  3 S10088 mwr156 NA      2010    NA      NA Electrofishing    Electrofishing_an~
#>  4 S10088 mwr157 NA      2013    NA      NA Electrofishing    Electrofishing_an~
#>  5 S10088 mwr158 NA      2016    NA      NA Electrofishing    Electrofishing_an~
#>  6 S10088 mwr159 NA      2017    NA      NA Electrofishing    Electrofishing_an~
#>  7 S10088 mwr160 NA      2018    NA      NA Electrofishing    Electrofishing_an~
#>  8 S10446 and41  NA      2008    NA      NA Electrofishing_a~ Electrofishing_an~
#>  9 S10446 and42  NA      2009    NA      NA Electrofishing_a~ Electrofishing_an~
#> 10 S10446 and43  NA      2009    NA      NA Electrofishing_a~ Electrofishing_an~
#> # ... with 576 more rows, and 4 more variables: sampledlength_m <dbl>,
#> #   unitabundance <chr>, watertemp_c <dbl>, unitbiomass <chr>
…
