Community structure
…
compute_jaccard_decomp(x = x[1, ], y = x[2, ])
#>    jaccard jaccard_ne jaccard_tu 
#>        0.5        0.5        0.0
compute_jaccard_decomp(x = x[1, ], y = x[3, ])
#>    jaccard jaccard_ne jaccard_tu 
#>          1          0          1
compute_jaccard_decomp(x = x[1, ], y = x[1, ])
#>    jaccard jaccard_ne jaccard_tu 
#>          0          0          0

2.3.2 DATA

tar_load(c(baselga_c, analysis_dataset))
baselga_c
#> # A tibble: 62,174 x 5
#>    siteid  year jaccard nestedness turnover
#>    <chr>  <dbl>   <dbl>      <dbl>    <dbl>
#>  1 S1      1987   0         0         0    
#>  2 S1      1988   0.6       0.6       0    
#>  3 S1      1989   0.733     0.733     0    
#>  4 S1      1990   0.769     0.369     0.4  
#>  5 S1      1992   0.6       0.6       0    
#>  6 S1      1993   0.8       0.133     0.667
#>  7 S1      1994   0.429     0.429     0    
#>  8 S1      1996   0.769     0.369     0.4  
#>  9 S1      1997   0.818     0.152     0.667
#> 10 S1      1998   0.909     0.0519    0.857
#> # ... with 62,164 more rows
…
